{
    "data": {
        "company": "Dynatrace",
		"department": "Services",
		"title": "DXS Consultant",
		"firstname": "Rodrigo",
		"lastname": "Maldonado",
		"email": "rodrigo.maldonado@dynatrace.com"
    }
}